<?xml version="1.0" encoding="utf-8"?>
<!-- Generator: Adobe Illustrator 18.0.0, SVG Export Plug-In . SVG Version: 6.00 Build 0)  -->
<!DOCTYPE svg PUBLIC "-//W3C//DTD SVG 1.1//EN" "http://www.w3.org/Graphics/SVG/1.1/DTD/svg11.dtd">
<svg version="1.1" xmlns="http://www.w3.org/2000/svg" xmlns:xlink="http://www.w3.org/1999/xlink" x="0px" y="0px"
	 viewBox="0 0 48 48" enable-background="new 0 0 48 48" xml:space="preserve">
<g id="Layer_1">
</g>
<g id="processor">
</g>
<g id="cpu">
</g>
<g id="printer">
</g>
<g id="box">
</g>
<g id="touch-pad">
</g>
<g id="keyboard">
</g>
<g id="cam-6">
</g>
<g id="headphone">
</g>
<g id="floppy">
</g>
<g id="flat-wifi">
</g>
<g id="two-line-wifi">
</g>
<g id="i-phone-iol">
</g>
<g id="hand-phone" display="none">
</g>
<g id="responsive">
</g>
<g id="tabs">
</g>
<g id="wide">
</g>
<g id="rotate">
</g>
<g id="storager-load">
</g>
<g id="storager-close">
</g>
<g id="storager-download_1_">
</g>
<g id="storager-upload">
</g>
<g id="storager-setting">
</g>
<g id="storager-unloack">
</g>
<g id="storager-lock">
</g>
<g id="storager-refresh">
</g>
<g id="storager">
</g>
<g id="microsim">
</g>
<g id="game-remote-3">
</g>
<g id="game-remote-2">
</g>
<g id="game-remote-1">
</g>
<g id="game-remote">
</g>
<g id="nano-sim">
</g>
<g id="sim-card">
</g>
<g id="plug-2">
</g>
<g id="plug">
</g>
<g id="wifi-adaptor-s">
</g>
<g id="wifi-adaptor-r">
</g>
<g id="socket">
</g>
<g id="broken-link">
</g>
<g id="link">
</g>
<g id="network-tred">
</g>
<g id="cloud-down">
</g>
<g id="cloud-up">
</g>
<g id="cloud-success">
</g>
<g id="channel">
</g>
<g id="locate-network">
</g>
<g id="group-share">
</g>
<g id="network-desktop">
</g>
<g id="network-3">
</g>
<g id="network-2">
</g>
<g id="network-1">
</g>
<g id="home-adaptor">
</g>
<g id="wifi-adaptor">
</g>
<g id="adoptor">
</g>
<g id="drive-shelve">
</g>
<g id="drive-3">
</g>
<g id="drive">
</g>
<g id="wifi-laptop">
</g>
<g id="wifi-tab">
</g>
<g id="wifi-mob">
</g>
<g id="wifi">
</g>
<g id="laptop-1">
</g>
<g id="computer-2">
</g>
<g id="old-computer">
</g>
<g id="battery-connected">
</g>
<g id="charging-3">
</g>
<g id="charging-2">
</g>
<g id="charging-1">
</g>
<g id="battery">
</g>
<g id="cam-4">
</g>
<g id="radio-2">
</g>
<g id="radio-1">
</g>
<g id="radio">
</g>
<g id="tape">
</g>
<g id="magic-mouse">
</g>
<g id="pendrive">
</g>
<g id="button-mouse">
</g>
<g id="ipod-pack">
</g>
<g id="i-pod">
</g>
<g id="flat-tv">
</g>
<g id="watch-2">
</g>
<g id="watch">
</g>
<g id="cam-2">
</g>
<g id="cam-1">
</g>
<g id="tv">
</g>
<g id="wirellesss">
</g>
<g id="small-phone">
</g>
<g id="phone">
</g>
<g id="android-phone">
</g>
<g id="i-phone">
	
		<line fill="none" stroke="#080808" stroke-width="2" stroke-linecap="round" stroke-linejoin="round" stroke-miterlimit="10" x1="10" y1="8" x2="39" y2="8"/>
	
		<line fill="none" stroke="#080808" stroke-width="2" stroke-linecap="round" stroke-linejoin="round" stroke-miterlimit="10" x1="39" y1="37" x2="10" y2="37"/>
	<path fill="none" stroke="#080808" stroke-width="2" stroke-linecap="round" stroke-linejoin="round" stroke-miterlimit="10" d="
		M35,47H13c-2.2091389,0-4-1.7908592-4-4V5c0-2.2091391,1.7908611-4,4-4h22c2.2091408,0,4,1.7908609,4,4v38
		C39,45.2091408,37.2091408,47,35,47z"/>
	
		<circle fill="none" stroke="#080808" stroke-width="2" stroke-linecap="round" stroke-linejoin="round" stroke-miterlimit="10" cx="24" cy="42" r="1"/>
</g>
<g id="large_phone">
</g>
<g id="i-pad">
</g>
<g id="tesktop">
</g>
<g id="laptop">
</g>
<g id="cloud-close">
</g>
<g id="plug-1">
</g>
<g id="storager-leg">
</g>
<g id="phone_1_">
</g>
<g id="cold-wifi">
</g>
<g id="handycam">
</g>
</svg>
