<?xml version="1.0" encoding="utf-8"?>
<!-- Svg Vector Icons : http://www.onlinewebfonts.com/icon -->
<!DOCTYPE svg PUBLIC "-//W3C//DTD SVG 1.1//EN" "http://www.w3.org/Graphics/SVG/1.1/DTD/svg11.dtd">
<svg version="1.1" xmlns="http://www.w3.org/2000/svg" xmlns:xlink="http://www.w3.org/1999/xlink" x="0px" y="0px" viewBox="0 0 1000 1000" enable-background="new 0 0 1000 1000" xml:space="preserve">
<g><path d="M354.4,847.5L354.4,847.5c-13.8,0-27-5.5-36.6-15.4l-293-297.4C4.9,514.5,5.1,482,25.4,462.1c20-20,52.7-19.7,72.7,0.5l256.4,260.3l547.7-555.1c20-20.2,52.5-20.4,72.7-0.5c20.2,19.9,20.3,52.5,0.4,72.7L391,832.2C381.3,842,368.1,847.5,354.4,847.5z"/></g>
</svg>